[Project]
Toolset=AVR
FormatVersion=2
Files=9
OpenedFiles=6
Top0=354
Left0=2271
Height0=341
Width0=497
Active0=0
State0=0
OF1=MSN-300Z.c
Top1=333
Left1=591
Height1=341
Width1=497
Row1=431
Collumn1=0
Active1=0
State1=0
OF2=GPIO.c
Top2=333
Left2=591
Height2=341
Width2=497
Row2=0
Collumn2=0
Active2=0
State2=0
OF3=ADC.c
Top3=333
Left3=591
Height3=341
Width3=497
Row3=13
Collumn3=23
Active3=0
State3=0
OF4=timer.c
Top4=333
Left4=591
Height4=341
Width4=497
Row4=0
Collumn4=0
Active4=0
State4=0
OF5=NCProtocol.c
Top5=333
Left5=591
Height5=341
Width5=497
Row5=0
Collumn5=0
Active5=0
State5=0
OF6=common.h
Top6=333
Left6=591
Height6=341
Width6=497
Row6=0
Collumn6=0
Active6=1
State6=0
OF7=common.h
Top7=333
Left7=591
Height7=341
Width7=497
Row7=28
Collumn7=10
Active7=1
State7=0
OF8=usart.c
Top8=333
Left8=591
Height8=341
Width8=497
Row8=0
Collumn8=0
Active8=0
State8=0
OF9=Zigbee.c
Top9=333
Left9=591
Height9=341
Width9=497
Row9=0
Collumn9=0
Active9=0
State9=0
OF10=c:\cvavr\inc\mega88.h
Top10=-30
Left10=-8
Height10=742
Width10=1259
Row10=14
Collumn10=65
Active10=1
State10=2
CleanUp=2
OutputListFilesDirectory=
OutputObjectFilesDirectory=
OutputExecutableFilesDirectory=
OutputLinkerFilesDirectory=
AllowDisplayFunctionCallTree=1
F1=MSN-300Z.c
F2=ADC.c
F3=GPIO.c
F4=NCProtocol.c
F5=RadarSensorProtocol.c
F6=rotary.c
F7=timer.c
F8=usart.c
F9=Zigbee.c
EditorPanelMode=0
ActiveEditorPanel=0
EditorPanel0=0
PageIndex0=0
EditorPanel1=0
TimeStamp1=1099789251
PageIndex1=1
EditorPanel2=0
TimeStamp2=1092914935
PageIndex2=2
EditorPanel3=0
TimeStamp3=1099788335
PageIndex3=3
EditorPanel4=0
TimeStamp4=1099788507
PageIndex4=4
EditorPanel5=0
TimeStamp5=1060378384
PageIndex5=5
EditorPanel6=0
TimeStamp6=1099789571
PageIndex6=6
EditorPanel7=0
TimeStamp7=1095793014
PageIndex7=7
[Compiler]
Chip=ATmega88PA
CPUClock=16000000
MemoryModel=1
OptimizeSize=1
OptimizationLevel=2
PrintfFeatures=1
ScanfFeatures=0
DataStackSize=256
RAMStart=256
RAMEnd=1279
PgmMemSize=8192
XRAMSize=0
XRAMWaitState=0
HeapSize=0
InterruptVectorsNumber=26
InterruptVectorJump=0
ResetVector=0
ExternalStartupFile=0
ExternalStartupFileWarning=0
BitVariablesSize=24
PromoteCharToInt=0
CharIsUnsigned=1
8BitEnums=1
EnhancedCoreInstructions=1
AutomaticRegisterAllocation=1
SmartRegisterAllocation=1
WordAlignFLASHStructMembers=0
PreprocessorOutput=1
StackEndMarkers=0
Warnings=1
WarningConstantRange=0
WarningPossibleLossOfPrecision=0
WarningArrayIndex=1
WarningGlobalVariableAddress=1
WarningInterruptVector=1
WarningUninitializedFLASH=1
WarningUninitializedEEPROM=1
WarningSuspiciousPointerConversion=1
WarningRegisterAllocated=1
WarningMacroRedefined=1
WarningFunctionReturn=1
WarningUnreferencedFunction=1
WarningUnreferencedFunctionParameter=1
WarningUnreferencedLocalVariable=1
WarningUnreferencedGlobalVariable=1
WarningUnreferencedLabel=1
WarningEmptyLine=1
WarningExpressionHasNoEffect=1
WarningUnknownEscapeSequence=1
WarningShiftResult0=1
Warning8BitAdditionOverflow=1
Warning8BitMultiplicationOverflow=1
Warning16BitAdditionOverflow=1
Warning16BitMultiplicationOverflow=1
WarningPossiblyIncorrectAssignment=1
WarningPointlessComparison=1
WarningUndefinedSymbol=1
WarningCantAllocVarToReg=1
WarningDataStackUsage=1
WarningHardwareStackLow=1
DebugBootLoader=0
Build=169
UseEEPROMLocation0=1
ExternalInterruptVectors=0
IncludePath0=
IncludePath1=
IncludePath2=
IncludePath3=
IncludePath4=
IncludePath5=
IncludePath6=
IncludePath7=
IncludePath8=
IncludePath9=
IncludePath10=
IncludePath11=
IncludePath12=
IncludePath13=
IncludePath14=
IncludePath15=
IncludePath16=
IncludePath17=
IncludePath18=
IncludePath19=
IncludePath20=
IncludePath21=
IncludePath22=
IncludePath23=
IncludePath24=
IncludePath25=
IncludePath26=
IncludePath27=
IncludePath28=
IncludePath29=
IncludePath30=
IncludePath31=
LibraryPath0=
LibraryPath1=
LibraryPath2=
LibraryPath3=
LibraryPath4=
LibraryPath5=
LibraryPath6=
LibraryPath7=
LibraryPath8=
LibraryPath9=
LibraryPath10=
LibraryPath11=
LibraryPath12=
LibraryPath13=
LibraryPath14=
LibraryPath15=
LibraryPath16=
LibraryPath17=
LibraryPath18=
LibraryPath19=
LibraryPath20=
LibraryPath21=
LibraryPath22=
LibraryPath23=
LibraryPath24=
LibraryPath25=
LibraryPath26=
LibraryPath27=
LibraryPath28=
LibraryPath29=
LibraryPath30=
LibraryPath31=
RebuildAll=0
LinkageInformationPresent=1
AVR8LHardwareStackSize=16
UseHiGPIORbit=1
IOBitDefinitions=0
GlobalConstInFlash=0
ClearGlobalVarsStartup=1
WarningConstantNotInitialized=1
WarningFunctionParameterName=1
WarningLocalVariableSetNotUsed=1
WarningVariableUsedNotSet=1
Warning8BitShiftLeftOverflow=1
Warning16BitShiftLeftOverflow=1
WarningConstCtrlExpr=1
WarningExplicitTypeMissing=1
WarningEnumType=1
WarningTypedefName=1
WarningTypedefRedeclared=1
WarningExtraBraces=1
WarningIncompatibleAssignment=0
WarningIncompatibleInit=0
WarningIncompatibleOperandsTernary=0
WarningIncompatibleFunctionArgument=0
WarningIncompatibleFunctionReturn=0
WarningMemoryAttributeIgnored=0
WarningPragmaVector=1
WarningDataStackRecursion=1
WarningCOFFArrayDim=1
WarningCOFFDataComplex=1
WarningUnknownPragma=1
LinkerWarnings=1
[DefinedSymbols]
Count=0
[Assembler]
OutputFormat=1
TerminalIO=0
[BeforeMake]
RunUserProg=0
UserProgPath=
UserProgCmdLine=
UserProgWorkDir=
[AfterMake]
ProgrammChip=1
MergeROMFile=0
ROMFilePath=
LockBits=0
BootLockBits0=0
BootLockBits1=0
ProgramFuseBits=1
Fuse1=0
Fuse2=0
Fuse3=0
Fuse4=0
Fuse5=0
Fuse6=0
Fuse7=0
Fuse8=0
Fuse9=0
Fuse10=0
Fuse11=0
Fuse12=0
Fuse13=0
Fuse14=0
Fuse15=0
Fuse16=0
Fuse17=0
Fuse18=0
Fuse19=0
Fuse20=0
Fuse21=0
Fuse22=0
Fuse23=0
Fuse24=0
CheckSignature=1
CheckErasure=1
PreserveEEPROM=0
VerifyProgramming=0
ProgrammingCounter=88
RunUserProg=0
UserProgPath=
UserProgCmdLine=
UserProgWorkDir=
SCKFrequency=460800
BootLockBits2=0
Fuse25=0
Fuse26=0
Fuse27=0
Fuse28=0
Fuse29=0
Fuse30=0
Fuse31=0
Fuse32=0
Fuse33=0
Fuse34=0
Fuse35=0
Fuse36=0
Fuse37=0
Fuse38=0
Fuse39=0
Fuse40=0
Fuse41=0
Fuse42=0
Fuse43=0
Fuse44=0
Fuse45=0
Fuse46=0
Fuse47=0
Fuse48=0
[BookmarksFoldedCode]
Files=20
F1=common.h
F2=c:\cvavr\inc\mega88.h
F3=Zigbee.c
F4=usart.c
F5=timer.c
F6=rotary.c
F7=RadarSensorProtocol.c
F8=NCProtocol.c
F9=GPIO.c
F10=ADC.c
F11=MSN-300Z.c
F12=rotary.h
F13=adc.h
F14=util.h
F15=zigbee.h
F16=gpio.h
F17=C:\cvavreval\inc\math.h
F18=NCProtocol.h
F19=C:\Users\funface2\AppData\Local\Temp\Temp1_SIMFIRM_120516.zip\SIMFIRM_120516\Adventure4D\common.c
F20=usart.h
[Bookmarks1]
TimeStamp=1099789571
Row=6
Column=22
ScrollPosX=0
ScrollPosY=0
BK0=-1
BK1=-1
BK2=-1
BK3=-1
BK4=-1
BK5=-1
BK6=-1
BK7=-1
BK8=-1
BK9=-1
[Bookmarks2]
TimeStamp=823892738
Row=8
Column=28
ScrollPosX=0
ScrollPosY=0
BK0=-1
BK1=-1
BK2=-1
BK3=-1
BK4=-1
BK5=-1
BK6=-1
BK7=-1
BK8=-1
BK9=-1
[FoldedCode2]
Blocks=0
[Bookmarks3]
TimeStamp=1095863495
Row=52
Column=0
ScrollPosX=0
ScrollPosY=33
BK0=-1
BK1=-1
BK2=-1
BK3=-1
BK4=-1
BK5=-1
BK6=-1
BK7=-1
BK8=-1
BK9=-1
[Bookmarks4]
TimeStamp=1099788102
Row=28
Column=55
ScrollPosX=0
ScrollPosY=36
BK0=-1
BK1=-1
BK2=-1
BK3=-1
BK4=-1
BK5=-1
BK6=-1
BK7=-1
BK8=-1
BK9=-1
[Bookmarks5]
TimeStamp=1099788507
Row=35
Column=23
ScrollPosX=0
ScrollPosY=24
BK0=-1
BK1=-1
BK2=-1
BK3=-1
BK4=-1
BK5=-1
BK6=-1
BK7=-1
BK8=-1
BK9=-1
[Bookmarks6]
TimeStamp=1099788665
Row=22
Column=12
ScrollPosX=0
ScrollPosY=0
BK0=-1
BK1=-1
BK2=-1
BK3=-1
BK4=-1
BK5=-1
BK6=-1
BK7=-1
BK8=-1
BK9=-1
[Bookmarks7]
TimeStamp=1060378311
Row=0
Column=0
ScrollPosX=0
ScrollPosY=0
BK0=-1
BK1=-1
BK2=-1
BK3=-1
BK4=-1
BK5=-1
BK6=-1
BK7=-1
BK8=-1
BK9=-1
[Bookmarks8]
TimeStamp=1060378384
Row=0
Column=23
ScrollPosX=0
ScrollPosY=0
BK0=-1
BK1=-1
BK2=-1
BK3=-1
BK4=-1
BK5=-1
BK6=-1
BK7=-1
BK8=-1
BK9=-1
[Bookmarks9]
TimeStamp=1092914935
Row=13
Column=44
ScrollPosX=0
ScrollPosY=0
BK0=-1
BK1=-1
BK2=-1
BK3=-1
BK4=-1
BK5=-1
BK6=-1
BK7=-1
BK8=-1
BK9=-1
[Bookmarks10]
TimeStamp=1099788335
Row=28
Column=30
ScrollPosX=0
ScrollPosY=3
BK0=-1
BK1=-1
BK2=-1
BK3=-1
BK4=-1
BK5=-1
BK6=-1
BK7=-1
BK8=-1
BK9=-1
[Bookmarks11]
TimeStamp=1099789251
Row=286
Column=42
ScrollPosX=0
ScrollPosY=275
BK0=-1
BK1=-1
BK2=-1
BK3=-1
BK4=-1
BK5=-1
BK6=-1
BK7=-1
BK8=-1
BK9=-1
[Bookmarks12]
TimeStamp=1058684019
Row=0
Column=0
ScrollPosX=0
ScrollPosY=0
BK0=-1
BK1=-1
BK2=-1
BK3=-1
BK4=-1
BK5=-1
BK6=-1
BK7=-1
BK8=-1
BK9=-1
[FoldedCode12]
Blocks=0
[Libraries]
Use1Wire=0
UseFATFS=0
UseAlphanumericLCD=0
[Bookmarks13]
TimeStamp=1095865610
Row=7
Column=53
ScrollPosX=0
ScrollPosY=0
BK0=-1
BK1=-1
BK2=-1
BK3=-1
BK4=-1
BK5=-1
BK6=-1
BK7=-1
BK8=-1
BK9=-1
[Bookmarks14]
TimeStamp=1085827363
Row=6
Column=6
ScrollPosX=0
ScrollPosY=0
BK0=-1
BK1=-1
BK2=-1
BK3=-1
BK4=-1
BK5=-1
BK6=-1
BK7=-1
BK8=-1
BK9=-1
[Bookmarks15]
TimeStamp=1090089186
Row=16
Column=23
ScrollPosX=0
ScrollPosY=0
BK0=-1
BK1=-1
BK2=-1
BK3=-1
BK4=-1
BK5=-1
BK6=-1
BK7=-1
BK8=-1
BK9=-1
[Bookmarks0]
Row=0
Column=0
ScrollPosX=0
ScrollPosY=0
TimeStamp=1099856118
[Bookmarks16]
TimeStamp=1086159643
Row=5
Column=15
ScrollPosX=0
ScrollPosY=0
BK0=-1
BK1=-1
BK2=-1
BK3=-1
BK4=-1
BK5=-1
BK6=-1
BK7=-1
BK8=-1
BK9=-1
[Bookmarks17]
TimeStamp=977951811
Row=0
Column=30
ScrollPosX=0
ScrollPosY=0
BK0=-1
BK1=-1
BK2=-1
BK3=-1
BK4=-1
BK5=-1
BK6=-1
BK7=-1
BK8=-1
BK9=-1
[Bookmarks18]
TimeStamp=1092840335
Row=19
Column=40
ScrollPosX=0
ScrollPosY=0
BK0=-1
BK1=-1
BK2=-1
BK3=-1
BK4=-1
BK5=-1
BK6=-1
BK7=-1
BK8=-1
BK9=-1
[FoldedCode17]
Blocks=0
[Bookmarks19]
TimeStamp=1091067759
Row=426
Column=16
ScrollPosX=0
ScrollPosY=399
BK0=-1
BK1=-1
BK2=-1
BK3=-1
BK4=-1
BK5=-1
BK6=-1
BK7=-1
BK8=-1
BK9=-1
[FoldedCode19]
Blocks=0
[FoldedCode15]
Blocks=0
[Bookmarks20]
TimeStamp=1058684019
Row=15
Column=27
ScrollPosX=0
ScrollPosY=0
BK0=-1
BK1=-1
BK2=-1
BK3=-1
BK4=-1
BK5=-1
BK6=-1
BK7=-1
BK8=-1
BK9=-1
[FoldedCode14]
Blocks=0
[FoldedCode7]
Blocks=0
[FoldedCode18]
Blocks=0
[FoldedCode20]
Blocks=0
[FoldedCode3]
Blocks=0
[FoldedCode16]
Blocks=0
[FoldedCode13]
Blocks=0
[FoldedCode4]
Blocks=0
[FoldedCode6]
Blocks=0
[HeadersList]
Files=8
F1=D:\workspace2\MSN-301Z\src\MSN-300Z.c
F2=D:\workspace2\MSN-301Z\src\ADC.c
F3=D:\workspace2\MSN-301Z\src\GPIO.c
F4=D:\workspace2\MSN-301Z\src\NCProtocol.c
F5=D:\workspace2\MSN-301Z\src\rotary.c
F6=D:\workspace2\MSN-301Z\src\timer.c
F7=D:\workspace2\MSN-301Z\src\usart.c
F8=D:\workspace2\MSN-301Z\src\Zigbee.c
[Header1]
Files=15
F1=common.h
F2=C:\cvavreval\inc\mega88a.h
F3=C:\cvavreval\inc\delay.h
F4=util.h
F5=gpio.h
F6=usart.h
F7=adc.h
F8=timer.h
F9=zigbee.h
F10=rotary.h
F11=NCProtocol.h
F12=C:\cvavreval\inc\stdio.h
F13=C:\cvavreval\inc\stdarg.h
F14=C:\cvavreval\inc\string.h
F15=C:\cvavreval\inc\math.h
[Header2]
Files=5
F1=adc.h
F2=common.h
F3=C:\cvavreval\inc\mega88a.h
F4=C:\cvavreval\inc\delay.h
F5=gpio.h
[Header3]
Files=4
F1=GPIO.h
F2=common.h
F3=C:\cvavreval\inc\mega88a.h
F4=C:\cvavreval\inc\delay.h
[Header4]
Files=3
F1=NCprotocol.h
F2=C:\cvavreval\inc\stdio.h
F3=C:\cvavreval\inc\stdarg.h
[Header5]
Files=4
F1=rotary.h
F2=common.h
F3=C:\cvavreval\inc\mega88a.h
F4=C:\cvavreval\inc\delay.h
[Header6]
Files=4
F1=timer.h
F2=common.h
F3=C:\cvavreval\inc\mega88a.h
F4=C:\cvavreval\inc\delay.h
[Header7]
Files=4
F1=usart.h
F2=common.h
F3=C:\cvavreval\inc\mega88a.h
F4=C:\cvavreval\inc\delay.h
[Header8]
Files=6
F1=zigbee.h
F2=common.h
F3=C:\cvavreval\inc\mega88a.h
F4=C:\cvavreval\inc\delay.h
F5=util.h
F6=usart.h
[FoldedCode11]
Blocks=0
[FoldedCode10]
Blocks=0
[FoldedCode9]
Blocks=0
[FoldedCode8]
Blocks=0
[FoldedCode5]
Blocks=0
[FoldedCode1]
Blocks=0
